<svg xmlns="http://www.w3.org/2000/svg" viewBox="0 0 13.75 22">
  <defs>
    <style>
      .cls-1 {
        fill: #fff;
      }
    </style>
  </defs>
  <path id="facebook_icon" data-name="facebook icon" class="cls-1" d="M9.032,23,9,13H5V9H9V6.5C9,2.789,11.3,1,14.609,1a30.723,30.723,0,0,1,3.346.171V5.049h-2.3c-1.8,0-2.149.856-2.149,2.111V9h5.24l-2,4H13.51V23Z" transform="translate(-5 -1)"/>
</svg>
