<svg xmlns="http://www.w3.org/2000/svg" viewBox="0 0 23.925 24">
  <defs>
    <style>
      .cls-1 {
        fill: #fff;
      }
    </style>
  </defs>
  <path id="whatsapp_icon" data-name="whatsapp icon" class="cls-1" d="M0,24l1.7-6.2A12.131,12.131,0,0,1,.1,11.9,11.843,11.843,0,0,1,11.9,0H12a11.478,11.478,0,0,1,8.4,3.5,11.771,11.771,0,0,1,0,16.8A12.059,12.059,0,0,1,12,23.8h0a12.631,12.631,0,0,1-5.7-1.4Zm6.6-3.8.4.2a9.661,9.661,0,0,0,5,1.4h0a9.8,9.8,0,1,0-9.9-9.7,9.219,9.219,0,0,0,1.5,5.1l.2.4-1,3.6ZM9,6.9c-.2-.6-.5-.5-.6-.5H7.8a1.234,1.234,0,0,0-.8.4A3.317,3.317,0,0,0,6,9.3a5.949,5.949,0,0,0,1.2,3.1,13.031,13.031,0,0,0,5.1,4.5c.6.2,1.1.4,1.7.6a4.084,4.084,0,0,0,1.9.1c.6-.1,1.8-.7,2-1.4a6.753,6.753,0,0,0,.2-1.4l-.6-.3c-.3-.1-1.8-.9-2-1a.616.616,0,0,0-.7.1c-.2.3-.8,1-.9,1.2-.2.2-.3.2-.6.1a6.08,6.08,0,0,1-2.4-1.5,8.7,8.7,0,0,1-1.7-2.1c-.1-.2-.1-.5.1-.6h0a1,1,0,0,0,.4-.5l.3-.6c.1-.2,0-.4,0-.5C9.9,9,9.3,7.5,9,6.9Z"/>
</svg>
