<?xml version="1.0" encoding="utf-8"?>
<!DOCTYPE svg PUBLIC "-//W3C//DTD SVG 1.1//EN" "http://www.w3.org/Graphics/SVG/1.1/DTD/svg11.dtd">
<svg version="1.1" baseProfile="full"
 xmlns="http://www.w3.org/2000/svg"
 xmlns:xlink="http://www.w3.org/1999/xlink"
 xmlns:ev="http://www.w3.org/2001/xml-events" 
  height="28px" 
  width="32px" 
>
<path fill="rgb( 255, 255, 255 )"
 d="M28,19.999 L28,23.999 L4,23.999 L4,19.999 L0,19.999 L0,28 L32,28 L32,19.999 L28,19.999 ZM24,9.999 L18,9.999 L18,0 L14,0 L14,9.999 L8,9.999 L16,21.999 L24,9.999 Z "/>
</svg>
