<svg xmlns="http://www.w3.org/2000/svg" viewBox="0 0 23.4 23.4">
  <defs>
    <style>
      .cls-1 {
        fill: #0caea4;
      }
    </style>
  </defs>
  <path id="search_icon" data-name="search icon" class="cls-1" d="M17.7,16.3A9.929,9.929,0,0,0,20,10,10,10,0,1,0,10,20a9.929,9.929,0,0,0,6.3-2.3L22,23.4,23.4,22ZM2,10a8,8,0,1,1,8,8A8.024,8.024,0,0,1,2,10Z"/>
</svg>
