<svg xmlns="http://www.w3.org/2000/svg" viewBox="0 0 16 16">
  <defs>
    <style>
      .cls-1 {
        fill: #fff;
      }
    </style>
  </defs>
  <path id="star" class="cls-1" d="M8,0l2.267,5.6L16,6.133l-4.4,4L12.933,16,8,12.933,3.067,16,4.4,10.133l-4.4-4L5.733,5.6Z"/>
</svg>
