<?xml version="1.0" encoding="utf-8"?>
<!DOCTYPE svg PUBLIC "-//W3C//DTD SVG 1.1//EN" "http://www.w3.org/Graphics/SVG/1.1/DTD/svg11.dtd">
<svg version="1.1" baseProfile="full"
 xmlns="http://www.w3.org/2000/svg"
 xmlns:xlink="http://www.w3.org/1999/xlink"
 xmlns:ev="http://www.w3.org/2001/xml-events" 
  height="17px" 
  width="13px" 
>
<path fill="rgb( 255, 255, 255 )"
 d="M0.998,16.999 L0.998,7.999 L1.995,7.999 C1.996,7.999 1.998,7.999 1.998,7.999 L1.998,5.999 C1.998,3.23699999999999 4.23699999999999,0.999 6.999,0.999 C9.76000000000001,0.999 11.998,3.23699999999999 11.998,5.999 L11.998,7.999 C12,7.999 12.001,7.999 12.002,7.999 L12.999,7.999 L12.999,16.999 L0.998,16.999 ZM9.998,5.999 C9.998,4.342 8.65600000000001,2.998 6.999,2.998 C5.342,2.998 3.998,4.342 3.998,5.999 L3.998,7.999 L9.998,7.999 L9.998,5.999 ZM10.998,9.999 L2.998,9.999 L2.998,14.999 L10.998,14.999 L10.998,9.999 Z "/>
</svg>
