<?xml version="1.0" encoding="utf-8"?>
<!DOCTYPE svg PUBLIC "-//W3C//DTD SVG 1.1//EN" "http://www.w3.org/Graphics/SVG/1.1/DTD/svg11.dtd">
<svg version="1.1" baseProfile="full"
 xmlns="http://www.w3.org/2000/svg"
 xmlns:xlink="http://www.w3.org/1999/xlink"
 xmlns:ev="http://www.w3.org/2001/xml-events" 
  height="32px" 
  width="32px" 
>
<path fill="rgb( 255, 255, 255 )"
 d="M26.41,17.998 C26.534,17.781 26.64,17.552 26.752,17.326 C25.074,20.708 21.852,23.186 18,23.83 L18,28.13 C21.45,28.57 24,30.14 24,32 L8,32 C8,30.14 10.55,28.57 14,28.13 L14,23.83 C10.148,23.186 6.926,20.708 5.249,17.326 C5.36,17.552 5.466,17.782 5.59,17.998 C2.47,17.788 0,15.185 0,12.011 L0,6.003 C0,4.902 0.9,4.001 2,4.001 L4,4.001 L4,0 L28,0 L28,4.001 L30,4.001 C31.1,4.001 32,4.902 32,6.003 L32,12.011 C32,15.185 29.53,17.788 26.41,17.998 ZM4,6.003 L2,6.003 L2,12.011 C2,13.723 3.07,15.185 4.59,15.745 L4.59,15.755 C4.628,15.87 4.679,15.978 4.72,16.092 C4.257,14.814 4,13.438 4,12 L4,6.003 ZM5.156,17.144 C5.046,16.911 4.948,16.673 4.852,16.432 C4.948,16.673 5.046,16.912 5.156,17.144 ZM24,4 L8,4 L8,12 C8,15.923 10.801,19.239 14.66,19.885 L16,20.109 L17.34,19.885 C21.199,19.239 24,15.923 24,12 L24,4 ZM30,6.003 L28,6.003 L28,12 C28,13.438 27.743,14.814 27.28,16.092 C27.321,15.978 27.372,15.87 27.41,15.755 L27.41,15.745 C28.93,15.185 30,13.723 30,12.011 L30,6.003 ZM26.844,17.144 C26.954,16.912 27.052,16.673 27.148,16.432 C27.052,16.672 26.954,16.911 26.844,17.144 Z "/>
</svg>
