<svg xmlns="http://www.w3.org/2000/svg" viewBox="0 0 24 24">
  <defs>
    <style>
      .cls-1 {
        fill: #fff;
      }
    </style>
  </defs>
  <path id="custom_icon" data-name="custom icon" class="cls-1" d="M12,0A12,12,0,1,0,24,12,12.035,12.035,0,0,0,12,0Zm0,22A10,10,0,1,1,22,12,10.029,10.029,0,0,1,12,22ZM7.5,12A1.5,1.5,0,1,1,9,10.5,1.538,1.538,0,0,1,7.5,12ZM14,15h2a4,4,0,0,1-8,0h2a2,2,0,0,0,4,0ZM13,9h5v2H13Z"/>
</svg>
