<svg xmlns="http://www.w3.org/2000/svg" viewBox="0 0 12 16">
  <defs>
    <style>
      .cls-1 {
        fill: #fff;
        fill-rule: evenodd;
      }
    </style>
  </defs>
  <path id="locked_icon" data-name="locked icon" class="cls-1" d="M0,16V7H1V5A4.951,4.951,0,0,1,6,0a4.951,4.951,0,0,1,5,5V7h1v9ZM9,5A2.946,2.946,0,0,0,6,2,2.946,2.946,0,0,0,3,5V7H9Zm1,4H2v5h8Z"/>
</svg>
