<svg xmlns="http://www.w3.org/2000/svg" viewBox="0 0 32 32">
  <defs>
    <style>
      .cls-1 {
        fill: #fff;
      }
    </style>
  </defs>
  <path id="placeholder_icon" data-name="placeholder icon" class="cls-1" d="M16,0A16,16,0,1,0,32,16,16.047,16.047,0,0,0,16,0Zm0,30A14,14,0,1,1,30,16,14.041,14.041,0,0,1,16,30ZM10,16a2,2,0,1,1,2-2A2.006,2.006,0,0,1,10,16Zm14-2a2,2,0,1,1-2-2A2.006,2.006,0,0,1,24,14Zm-3.2,6.6,1.7,1-.5.9A6.89,6.89,0,0,1,16,26a7.3,7.3,0,0,1-3.5-.9,6.506,6.506,0,0,1-2.6-2.6l-.5-.9,1.7-1,.5.9a4.455,4.455,0,0,0,1.8,1.8,5,5,0,0,0,6.8-1.8Z"/>
</svg>
