<svg xmlns="http://www.w3.org/2000/svg" viewBox="0 0 24 24">
  <defs>
    <style>
      .cls-1 {
        fill: #fff;
      }
    </style>
  </defs>
  <path id="pinterest_icon" data-name="pinterest icon" class="cls-1" d="M12,0A12.021,12.021,0,0,0,7.6,23.2a12.9,12.9,0,0,1,0-3.4c.2-.9,1.4-6,1.4-6A5.685,5.685,0,0,1,8.7,12c0-1.7,1-2.9,2.2-2.9a1.526,1.526,0,0,1,1.5,1.7,29.037,29.037,0,0,1-1,4A1.762,1.762,0,0,0,13.2,17c2.1,0,3.8-2.2,3.8-5.5a4.752,4.752,0,0,0-5-4.9,5.208,5.208,0,0,0-5.4,5.2,4.592,4.592,0,0,0,.9,2.7.367.367,0,0,1,.1.3,12.083,12.083,0,0,0-.3,1.4c-.1.2-.2.3-.4.2-1.5-.7-2.4-2.9-2.4-4.6,0-3.8,2.8-7.3,7.9-7.3,4.2,0,7.4,3,7.4,6.9,0,4.1-2.6,7.5-6.2,7.5a3.225,3.225,0,0,1-2.8-1.4s-.6,2.3-.7,2.9a14.843,14.843,0,0,1-1.5,3.1A11.976,11.976,0,0,0,24,12,12.035,12.035,0,0,0,12,0Z"/>
</svg>
