<svg xmlns="http://www.w3.org/2000/svg" viewBox="0 0 24.3 23.1">
  <defs>
    <style>
      .cls-1 {
        fill: #9da9ba;
      }
    </style>
  </defs>
  <path id="star_icon" data-name="star icon" class="cls-1" d="M19.7,23.1l-7.5-3.9L4.7,23.1l1.4-8.4L0,8.8,8.4,7.6,12.1,0l3.8,7.6,8.4,1.2-6.1,5.9Zm-7.6-6.2L17,19.4,16.1,14,20,10.2l-5.4-.8L12.2,4.5,9.7,9.4l-5.4.8L8.2,14l-.9,5.4Z"/>
</svg>
