<?xml version="1.0" encoding="utf-8"?>
<!DOCTYPE svg PUBLIC "-//W3C//DTD SVG 1.1//EN" "http://www.w3.org/Graphics/SVG/1.1/DTD/svg11.dtd">
<svg version="1.1" baseProfile="full"
 xmlns="http://www.w3.org/2000/svg"
 xmlns:xlink="http://www.w3.org/1999/xlink"
 xmlns:ev="http://www.w3.org/2001/xml-events" 
  height="33px" 
  width="34px" 
>
<path fill="rgb( 255, 255, 255 )"
 d="M10.998,22.999 C11.548,23.547 12.476,23.522 13.059,22.938 L22.937,13.059 C23.522,12.475 23.547,11.547 22.998,10.997 C22.448,10.448 21.521,10.475 20.937,11.059 L11.06,20.938 C10.475,21.522 10.449,22.448 10.998,22.999 ZM15.9,22.096 C16.043,22.378 16.119,22.694 16.119,23.024 C16.119,23.575 15.908,24.086 15.525,24.471 L10.419,29.577 C10.036,29.959 9.522,30.171 8.973,30.171 C8.422,30.171 7.909,29.959 7.526,29.577 L4.419,26.471 C4.037,26.086 3.825,25.575 3.825,25.024 C3.825,24.473 4.037,23.959 4.419,23.577 L9.525,18.473 C9.908,18.088 10.422,17.877 10.972,17.877 C11.302,17.877 11.618,17.954 11.9,18.097 L13.942,16.055 C13.072,15.383 12.022,15.048 10.972,15.048 C9.723,15.048 8.473,15.524 7.526,16.471 L2.42,21.576 C0.523,23.472 0.523,26.574 2.42,28.471 L5.525,31.577 C6.475,32.524 7.723,32.999 8.974,32.999 C10.223,32.999 11.472,32.524 12.421,31.577 L17.526,26.473 C19.271,24.729 19.409,21.961 17.943,20.055 L15.9,22.096 ZM31.576,5.525 L28.47,2.42 C27.522,1.473 26.273,0.999 25.023,0.999 C23.773,0.999 22.524,1.473 21.577,2.42 L16.471,7.526 C14.727,9.27 14.588,12.035 16.053,13.944 L18.096,11.901 C17.953,11.618 17.877,11.303 17.877,10.972 C17.877,10.422 18.088,9.909 18.472,9.526 L23.578,4.42 C23.961,4.037 24.475,3.827 25.024,3.827 C25.574,3.827 26.087,4.037 26.472,4.42 L29.577,7.526 C29.961,7.909 30.171,8.422 30.171,8.973 C30.171,9.524 29.961,10.036 29.577,10.418 L24.471,15.524 C24.088,15.909 23.575,16.119 23.024,16.119 C22.696,16.119 22.379,16.044 22.096,15.9 L20.055,17.942 C20.925,18.612 21.974,18.947 23.024,18.947 C24.274,18.947 25.523,18.473 26.472,17.526 L31.578,12.42 C33.473,10.524 33.473,7.422 31.576,5.525 Z "/>
</svg>
