<svg xmlns="http://www.w3.org/2000/svg" viewBox="0 0 113.605 85.451">
  <defs>
    <style>
      .cls-1 {
        fill: #fff;
        fill-rule: evenodd;
      }

      .cls-2 {
        fill: #dfe2e7;
      }
    </style>
  </defs>
  <g id="illustration" transform="translate(-269.697 -2146.58)">
    <g id="email_large" data-name="email large" transform="translate(288.921 2179.58) rotate(-30)">
      <path id="base_1_" class="cls-1" d="M63,46H3a3.009,3.009,0,0,1-3-3V3A3.009,3.009,0,0,1,3,0H63a3.009,3.009,0,0,1,3,3V43A2.946,2.946,0,0,1,63,46Z"/>
      <path id="border_1_" class="cls-2" d="M63,0H3A2.946,2.946,0,0,0,0,3V43a3.009,3.009,0,0,0,3,3H63a3.009,3.009,0,0,0,3-3V3A2.946,2.946,0,0,0,63,0Zm-.5,2L33,30.6,3.5,2ZM2.3,43.7A.779.779,0,0,1,2,43V3a.908.908,0,0,1,.3-.7L23.7,23Zm1.2.3L24.4,23.7,33,32l8.6-8.3L62.5,44ZM64,43a.908.908,0,0,1-.3.7L42.3,23,63.7,2.3A.779.779,0,0,1,64,3Z"/>
    </g>
    <g id="email_small" data-name="email small" transform="matrix(0.966, 0.259, -0.259, 0.966, 352.392, 2202.234)">
      <path id="base_1_2" data-name="base_1_" class="cls-1" d="M30.6,22H1.4A1.367,1.367,0,0,1,0,20.6V1.4A1.367,1.367,0,0,1,1.4,0H30.6A1.367,1.367,0,0,1,32,1.4V20.6A1.367,1.367,0,0,1,30.6,22Z"/>
      <path id="border_1_2" data-name="border_1_" class="cls-2" d="M30.6,0H1.4A1.367,1.367,0,0,0,0,1.4V20.6A1.367,1.367,0,0,0,1.4,22H30.6A1.367,1.367,0,0,0,32,20.6V1.4A1.367,1.367,0,0,0,30.6,0ZM28.2,2l-9.5,8.3-.8.7L16,12.7,14.1,11l-.8-.7L3.8,2ZM2,20V2h.3l10.3,9L2.3,20Zm1.8,0,9.5-8.3L16,14l2.7-2.3L28.2,20ZM30,20h-.3L19.4,11,29.7,2H30Z"/>
    </g>
    <g id="email_medium" data-name="email medium" transform="matrix(0.996, -0.087, 0.087, 0.996, 269.697, 2200.153)">
      <path id="base_1_3" data-name="base_1_" class="cls-1" d="M45.9,32H2.1A2.051,2.051,0,0,1,0,29.9V2.1A2.051,2.051,0,0,1,2.1,0H45.9A2.051,2.051,0,0,1,48,2.1V29.9A2.051,2.051,0,0,1,45.9,32Z"/>
      <path id="border_2_" class="cls-2" d="M45.9,0H2.1A2.051,2.051,0,0,0,0,2.1V29.9A2.051,2.051,0,0,0,2.1,32H45.9A2.051,2.051,0,0,0,48,29.9V2.1A2.051,2.051,0,0,0,45.9,0ZM44.3,2,24,20.6,3.7,2ZM2.1,30,2,29.9V2.1L2.1,2h.1L17.5,16,2.1,30Zm1.6,0L18.2,16.7,24,22l5.8-5.3L44.3,30ZM46,29.9a.1.1,0,0,1-.1.1h-.1L30.5,16,45.8,2h.1l.1.1Z"/>
    </g>
  </g>
</svg>
